<?xml version="1.0" encoding="UTF-8" standalone="no"?>
<svg
   xmlns:dc="http://purl.org/dc/elements/1.1/"
   xmlns:cc="http://creativecommons.org/ns#"
   xmlns:rdf="http://www.w3.org/1999/02/22-rdf-syntax-ns#"
   xmlns:svg="http://www.w3.org/2000/svg"
   xmlns="http://www.w3.org/2000/svg"
   xmlns:sodipodi="http://sodipodi.sourceforge.net/DTD/sodipodi-0.dtd"
   xmlns:inkscape="http://www.inkscape.org/namespaces/inkscape"
   height="37.795"
   width="37.795"
   version="1.1"
   id="svg4"
   sodipodi:docname="broom.svg"
   inkscape:version="0.92.4 5da689c313, 2019-01-14">
  <metadata
     id="metadata10">
    <rdf:RDF>
      <cc:Work
         rdf:about="">
        <dc:format>image/svg+xml</dc:format>
        <dc:type
           rdf:resource="http://purl.org/dc/dcmitype/StillImage" />
        <dc:title></dc:title>
      </cc:Work>
    </rdf:RDF>
  </metadata>
  <defs
     id="defs8" />
  <sodipodi:namedview
     pagecolor="#ffffff"
     bordercolor="#666666"
     borderopacity="1"
     objecttolerance="10"
     gridtolerance="10"
     guidetolerance="10"
     inkscape:pageopacity="0"
     inkscape:pageshadow="2"
     inkscape:window-width="3840"
     inkscape:window-height="2085"
     id="namedview6"
     showgrid="false"
     inkscape:zoom="8.83065"
     inkscape:cx="-0.6121112"
     inkscape:cy="39.859895"
     inkscape:window-x="0"
     inkscape:window-y="38"
     inkscape:window-maximized="1"
     inkscape:current-layer="svg4" />
  <path
     style="fill:#000000;stroke-width:0.5;stroke:#000000;stroke-opacity:1;stroke-miterlimit:4;stroke-dasharray:none"
     d="M 14.697789,33.39142 C 14.620604,33.38492 14.385612,33.36524 14.175594,33.34783 11.913362,33.160289 9.5882842,32.331534 7.4000013,30.932725 6.9402689,30.63885 6.1894971,30.110351 6.1896863,30.080732 c 7.07e-5,-0.01015 0.1382136,-0.04138 0.3069972,-0.0694 0.6439951,-0.106948 1.5305526,-0.422258 2.1389541,-0.760735 1.3840024,-0.76997 2.3450524,-1.802119 3.1149404,-3.345381 0.436397,-0.874769 0.985246,-1.686619 1.669793,-2.469938 2.649044,-3.031263 6.239346,-4.392869 10.304267,-3.907847 0.598136,0.07137 0.957958,0.164702 1.758186,0.456043 2.806814,1.021885 4.785887,2.604995 5.470473,4.375971 0.387369,1.002094 0.412833,2.048101 0.07826,3.214753 -0.713441,2.487777 -2.540579,4.149952 -5.311953,4.832356 -0.826485,0.203509 -1.896708,0.327352 -2.652695,0.306963 l -0.367152,-0.0099 0.412687,-0.234989 c 1.40171,-0.798151 2.349091,-1.694868 2.515614,-2.381091 0.04186,-0.172471 0.03204,-0.540291 -0.01619,-0.607057 -0.0161,-0.02227 -0.153103,0.06881 -0.382196,0.254082 -2.517712,2.036163 -5.559128,3.314208 -8.602186,3.61476 -0.332491,0.03284 -1.690226,0.06246 -1.929698,0.04211 z M 27.942542,19.630083 c -0.624387,-0.366435 -1.739021,-0.799982 -2.649245,-1.030445 -1.48493,-0.375978 -3.040132,-0.506064 -4.654444,-0.389325 l -0.266938,0.0193 0.03406,-0.1617 c 0.04722,-0.224215 0.151653,-0.484121 0.294081,-0.731986 0.593387,-1.032664 1.814345,-1.472163 3.418166,-1.23041 1.270422,0.191499 2.541921,0.648247 3.290166,1.181899 0.635865,0.453503 1.025344,1.119644 1.025344,1.753691 0,0.28938 -0.106571,0.776219 -0.168009,0.767526 -0.01372,-0.0019 -0.159164,-0.08229 -0.323187,-0.178554 z m -2.074075,-4.29962 c -0.217788,-0.06988 -0.351916,-0.172886 -0.44037,-0.338172 -0.181294,-0.338772 -0.298551,0.0707 1.587396,-5.5432928 L 28.727274,4.3534603 28.94233,4.2505746 c 0.290688,-0.1390686 0.712453,-0.2564533 0.918553,-0.2556512 0.461198,0.00177 0.756443,0.3095079 0.805739,0.83976 0.01748,0.1879976 -0.04385,0.3795839 -1.684953,5.2639916 -0.936699,2.787893 -1.711213,5.075846 -1.721143,5.084341 -0.0099,0.0085 -0.148676,0.04868 -0.308329,0.08931 -0.355785,0.09054 -0.892947,0.119355 -1.08373,0.05814 z"
     id="path842"
     inkscape:connector-curvature="0" />
</svg>
