<?xml version="1.0" encoding="UTF-8" standalone="no"?>
<svg
   xmlns:dc="http://purl.org/dc/elements/1.1/"
   xmlns:cc="http://creativecommons.org/ns#"
   xmlns:rdf="http://www.w3.org/1999/02/22-rdf-syntax-ns#"
   xmlns:svg="http://www.w3.org/2000/svg"
   xmlns="http://www.w3.org/2000/svg"
   xmlns:sodipodi="http://sodipodi.sourceforge.net/DTD/sodipodi-0.dtd"
   xmlns:inkscape="http://www.inkscape.org/namespaces/inkscape"
   height="37.795"
   width="37.795"
   version="1.1"
   id="svg8"
   sodipodi:docname="home.svg"
   inkscape:version="0.92.4 5da689c313, 2019-01-14">
  <metadata
     id="metadata14">
    <rdf:RDF>
      <cc:Work
         rdf:about="">
        <dc:format>image/svg+xml</dc:format>
        <dc:type
           rdf:resource="http://purl.org/dc/dcmitype/StillImage" />
      </cc:Work>
    </rdf:RDF>
  </metadata>
  <defs
     id="defs12" />
  <sodipodi:namedview
     pagecolor="#ffffff"
     bordercolor="#666666"
     borderopacity="1"
     objecttolerance="10"
     gridtolerance="10"
     guidetolerance="10"
     inkscape:pageopacity="0"
     inkscape:pageshadow="2"
     inkscape:window-width="2614"
     inkscape:window-height="1452"
     id="namedview10"
     showgrid="false"
     inkscape:zoom="6.2442125"
     inkscape:cx="-42.83967"
     inkscape:cy="18.897499"
     inkscape:window-x="0"
     inkscape:window-y="0"
     inkscape:window-maximized="0"
     inkscape:current-layer="svg8" />
  <path
     d="M5.94 17.12L18.897 5.557 31.856 17.12"
     fill="none"
     stroke="#000"
     stroke-width="2.753"
     stroke-linecap="round"
     stroke-linejoin="round"
     id="path4" />
  <path
     d="M18.898 11.339l-9.72 8.672-.087 10.225h6.027v-7.559h7.56v7.56h5.85l.088-10.226z"
     fill-rule="evenodd"
     stroke="#020202"
     stroke-width="2.429"
     stroke-linecap="round"
     stroke-linejoin="round"
     id="path6" />
</svg>
