<?xml version="1.0" encoding="UTF-8" standalone="no"?>
<svg
   xmlns:dc="http://purl.org/dc/elements/1.1/"
   xmlns:cc="http://creativecommons.org/ns#"
   xmlns:rdf="http://www.w3.org/1999/02/22-rdf-syntax-ns#"
   xmlns:svg="http://www.w3.org/2000/svg"
   xmlns="http://www.w3.org/2000/svg"
   xmlns:sodipodi="http://sodipodi.sourceforge.net/DTD/sodipodi-0.dtd"
   xmlns:inkscape="http://www.inkscape.org/namespaces/inkscape"
   width="16"
   height="16"
   version="1.1"
   id="svg4"
   sodipodi:docname="type-pdf.svg"
   inkscape:version="1.0.1 (3bc2e813f5, 2020-09-07)">
  <metadata
     id="metadata10">
    <rdf:RDF>
      <cc:Work
         rdf:about="">
        <dc:format>image/svg+xml</dc:format>
        <dc:type
           rdf:resource="http://purl.org/dc/dcmitype/StillImage" />
      </cc:Work>
    </rdf:RDF>
  </metadata>
  <defs
     id="defs8" />
  <sodipodi:namedview
     pagecolor="#ffffff"
     bordercolor="#666666"
     borderopacity="1"
     objecttolerance="10"
     gridtolerance="10"
     guidetolerance="10"
     inkscape:pageopacity="0"
     inkscape:pageshadow="2"
     inkscape:window-width="1452"
     inkscape:window-height="884"
     id="namedview6"
     showgrid="false"
     inkscape:zoom="29.5625"
     inkscape:cx="8"
     inkscape:cy="8"
     inkscape:window-x="0"
     inkscape:window-y="27"
     inkscape:window-maximized="0"
     inkscape:current-layer="svg4"
     inkscape:document-rotation="0" />
  <path
     d="m 4.2017831,1.871643 c -0.1571232,0.010021 -0.3258846,0 -0.5111352,0.1322669 C 2.0379469,2.7373897 3.1465367,4.7504508 5.2531491,6.2835439 5.2657645,5.9949617 5.382145,5.3656921 5.3792349,5.0891343 3.5820193,3.8175688 2.5306534,2.5800723 3.6760996,2.0890818 4.8836184,1.5720386 5.2579989,2.9838869 5.2793367,5.0330209 5.391791,5.1532635 6.1716419,5.6873409 6.2899644,5.7715107 6.2463219,3.9027406 5.283216,1.9948917 4.357936,1.8866733 4.3084709,1.8766532 4.2541572,1.8766532 4.2017831,1.8766532 M 5.8845511,5.128213 5.5082343,4.9769078 5.1969013,5.1933444 5.1338813,5.875721 5.5276542,6.1873499 5.6915636,6.4138069 c 1.2123697,0.829673 2.2453079,1.468963 3.6041297,1.997028 l 0.8476887,0.130263 h 0.557693 c 0.514048,-0.312631 0.207555,-0.432873 2.075574,-0.673358 l -2.104697,0.16834 C 9.0483484,7.3867699 7.391767,6.4538879 5.8845511,5.4358336 m 3.7049984,2.7204883 c 0.243438,0 2.1424985,-0.170343 2.8980455,-0.242489 0.747793,-0.120242 1.66628,-0.156315 1.49267,0.745504 0.197863,-0.48097 -0.253142,-1.297618 -0.894246,-1.441909 -0.991231,-0.228461 -2.564402,0.397802 -3.12985,0.591193 m 0.911701,0.249503 c -0.294847,0.120243 -0.9689215,0.207419 -1.2870497,0.315636 0.4510047,0.240486 2.7157067,1.103227 3.6506847,0.922863 0.149365,0 0.780765,-0.468946 0.79628,-0.805626 -0.04852,0.613237 -2.816574,0.156316 -3.159918,-0.444897 m 0.615884,0.01103 C 11.241282,7.9368819 10.105533,7.9428929 9.854331,7.8466989 8.4314947,8.3597349 6.5188621,9.5651669 5.1493703,10.378809 l -0.3966842,0.120242 c -0.076606,0.561132 -0.4121994,0.754522 -0.7177213,1.118256 l 0.4636088,0.48097 0.3627423,-0.613237 C 6.4645484,10.487024 9.6341648,8.8737699 11.482784,8.0992069 M 4.8613113,11.485038 C 4.6653896,11.60528 4.4782016,11.725523 4.3007064,11.845765 3.889466,13.050195 3.410342,13.859829 2.9525524,13.82576 3.6596105,14.174462 5.1823405,12.455997 5.6954154,10.838734 M 2.9525524,13.82576 C 1.8740296,13.164426 4.1571622,11.958995 4.6682963,11.608286 4.783719,11.271607 4.4685043,10.713481 4.5712545,10.31668 c -1.6100254,1.034087 -2.5624623,2.531106 -2.0222317,3.240539 0.1299676,0.168338 0.267687,0.252508 0.4044475,0.264533 m 1.567351,-2.520085 C 4.5954864,10.992043 5.5906103,10.28662 5.7700463,10.178402 6.0105844,8.2244589 6.022218,8.0310689 6.2268621,6.5120049 6.1046579,6.3917619 5.352013,5.7865411 5.2356313,5.7023714 5.0911189,7.3256459 4.8195502,9.5260849 4.4354701,10.996051"
     id="path2"
     style="stroke:#000000;stroke-width:0.36918;stroke-miterlimit:4;stroke-dasharray:none;stroke-opacity:1" />
  <rect
     style="fill:none;stroke:#000000;stroke-width:1.18291;stroke-linecap:round;stroke-linejoin:bevel;stroke-miterlimit:4;stroke-dasharray:none;stroke-opacity:1"
     id="rect848"
     width="14.817093"
     height="14.817093"
     x="0.59145379"
     y="0.59145379" />
</svg>
