<?xml version="1.0" encoding="UTF-8" standalone="no"?>
<svg
   xmlns:dc="http://purl.org/dc/elements/1.1/"
   xmlns:cc="http://creativecommons.org/ns#"
   xmlns:rdf="http://www.w3.org/1999/02/22-rdf-syntax-ns#"
   xmlns:svg="http://www.w3.org/2000/svg"
   xmlns="http://www.w3.org/2000/svg"
   xmlns:sodipodi="http://sodipodi.sourceforge.net/DTD/sodipodi-0.dtd"
   xmlns:inkscape="http://www.inkscape.org/namespaces/inkscape"
   width="16"
   height="16"
   version="1.1"
   id="svg4"
   sodipodi:docname="type-geogebra.svg"
   inkscape:version="1.0.1 (3bc2e813f5, 2020-09-07)">
  <metadata
     id="metadata10">
    <rdf:RDF>
      <cc:Work
         rdf:about="">
        <dc:format>image/svg+xml</dc:format>
        <dc:type
           rdf:resource="http://purl.org/dc/dcmitype/StillImage" />
      </cc:Work>
    </rdf:RDF>
  </metadata>
  <defs
     id="defs8" />
  <sodipodi:namedview
     pagecolor="#ffffff"
     bordercolor="#666666"
     borderopacity="1"
     objecttolerance="10"
     gridtolerance="10"
     guidetolerance="10"
     inkscape:pageopacity="0"
     inkscape:pageshadow="2"
     inkscape:window-width="1135"
     inkscape:window-height="795"
     id="namedview6"
     showgrid="false"
     inkscape:zoom="29.5625"
     inkscape:cx="8"
     inkscape:cy="8"
     inkscape:window-x="0"
     inkscape:window-y="27"
     inkscape:window-maximized="0"
     inkscape:current-layer="svg4" />
  <path
     d="M 4.627678,15.990881 A 1.5653865,1.6968309 0 0 1 3.6499327,15.351202 1.5753254,1.7076045 0 0 1 3.3443096,14.458346 l -0.0087,-0.153523 -0.1739318,-0.127935 A 5.973316,6.4748913 0 0 1 2.0186971,13.051054 5.3807054,5.8325196 0 0 1 0.85459629,10.237816 4.7185221,5.1147332 0 0 1 0.78999299,9.4809753 V 9.3261059 L 0.70799659,9.2722382 A 1.6188084,1.7547386 0 0 1 0.17501976,8.6460268 1.5231459,1.6510434 0 0 1 1.29688,6.2448764 L 1.4211171,6.2260227 1.5528083,5.949951 A 8.2120672,8.9016289 0 0 1 3.0275018,3.7413774 9.1065738,9.8712466 0 0 1 5.4923643,1.798102 11.243451,12.187555 0 0 1 5.8427127,1.6136053 l 0.074542,-0.033667 0.0087,-0.087535 A 1.526873,1.6550835 0 0 1 7.8938693,0.07299057 c 0.3168045,0.1077353 0.6025496,0.33397942 0.7901475,0.62217134 l 0.058391,0.0888816 0.1142981,-0.0121202 a 12.166532,13.188147 0 0 1 1.3169131,0.017507 c 0.606276,0.0673346 1.188948,0.21008382 1.716955,0.41747429 a 5.8192621,6.3079016 0 0 1 2.066062,1.3763184 l 0.127964,0.1346691 0.111813,-0.022894 c 0.14163,-0.028281 0.412467,-0.028281 0.557824,0 a 1.5206612,1.64835 0 0 1 0.827419,2.7566769 c -0.08448,0.1010019 -0.08572,0.1036953 -0.0733,0.161603 0.02982,0.1400559 0.08448,0.5683037 0.09939,0.7824276 0.03603,0.4807687 0,1.1743147 -0.08448,1.6672037 A 7.3250149,7.9400914 0 0 1 14.392709,11.03775 l -0.171447,0.282806 0.05715,0.129282 c 0.03106,0.07137 0.07206,0.197964 0.09318,0.278765 a 1.1181332,1.2120221 0 0 1 0.03727,0.404007 1.1181332,1.2120221 0 0 1 -0.03727,0.402661 1.5343272,1.6631636 0 0 1 -0.808783,1.077353 1.5156917,1.6429633 0 0 1 -1.325608,0.0081 l -0.118026,-0.06195 -0.144114,0.106389 a 9.1637228,9.9331944 0 0 1 -4.0861565,1.66047 c -0.5329769,0.06599 -1.2175229,0.07137 -1.6722304,0.01481 l -0.1180251,-0.01347 -0.029817,0.0404 a 1.5529628,1.683364 0 0 1 -0.8945066,0.604664 c -0.1205099,0.02693 -0.4422838,0.03771 -0.5466429,0.01751 z m 0.560309,-0.54945 A 1.0423486,1.1298739 0 0 0 5.6153623,15.149199 0.77896613,0.84437539 0 0 0 5.795506,14.879861 0.90941501,0.98577797 0 0 0 5.9098041,14.350611 0.78766272,0.85380223 0 0 0 5.8775021,14.051645 1.0175012,1.1029401 0 0 0 5.6066658,13.558756 0.99265381,1.0760063 0 0 0 5.187987,13.271911 c -0.1031167,-0.03771 -0.1329336,-0.0404 -0.325501,-0.0404 -0.1925674,0 -0.2236266,0.0027 -0.325501,0.0404 a 1.0038351,1.0881265 0 0 0 -0.4199211,0.288192 0.76033058,0.82417502 0 0 0 -0.1863556,0.276072 0.91065738,0.98712466 0 0 0 -0.1155404,0.522516 c 0,0.134669 0.00745,0.20335 0.032302,0.296272 a 1.0622265,1.151421 0 0 0 0.7889051,0.817442 1.167828,1.2658897 0 0 0 0.2608978,0.01616 0.81499487,0.88342943 0 0 0 0.2907142,-0.04713 z M 7.3410146,14.112247 A 7.9138983,8.578423 0 0 0 11.254481,12.67398 c 0.08697,-0.06329 0.159023,-0.119855 0.159023,-0.125242 a 4.4725328,4.8480884 0 0 0 -0.02112,-0.148136 1.48339,1.6079493 0 0 1 0.151569,-1.020792 c 0.124237,-0.265298 0.289472,-0.464609 0.515584,-0.624865 0.249716,-0.17507 0.464646,-0.250484 0.764057,-0.262605 a 1.5902339,1.7237648 0 0 1 0.433587,0.03501 l 0.05094,0.01077 0.12051,-0.197964 c 0.571491,-0.9332567 0.910658,-1.9244214 1.01129,-2.9586803 0.03851,-0.3959272 0.0087,-1.2362625 -0.04969,-1.3857452 -0.0099,-0.026934 -0.02982,-0.033667 -0.103117,-0.040401 A 1.6051423,1.739925 0 0 1 13.572751,5.6442521 C 13.175193,5.3210462 12.957778,4.8497043 12.95902,4.3177612 c 0,-0.2733783 0.05094,-0.5157827 0.154054,-0.7379867 l 0.04224,-0.090228 -0.08075,-0.082148 A 4.7880949,5.1901479 0 0 0 12.270751,2.7771465 5.6527845,6.127445 0 0 0 9.8990659,2.0283862 8.4704802,9.1817407 0 0 0 9.0306491,2.0216527 L 8.9250476,2.0324263 8.9002006,2.125348 A 1.5728407,1.7049111 0 0 1 8.5150659,2.8162005 1.5094798,1.6362298 0 0 1 6.8005949,3.1420998 1.3603954,1.4746269 0 0 1 6.4092483,2.8592947 L 6.3123433,2.7596395 6.0415066,2.9077755 C 5.6948853,3.0949656 5.4762282,3.2309814 5.1718475,3.4491454 A 7.3709826,7.989919 0 0 0 3.9195383,4.5601657 6.8740345,7.4512425 0 0 0 2.6187767,6.4549602 l -0.089451,0.1804566 0.1018744,0.1158155 c 0.1764165,0.2020036 0.2981688,0.4363279 0.3652568,0.7110529 0.032302,0.1319758 0.037271,0.1750699 0.037271,0.4161276 0,0.2935787 -0.012424,0.3703401 -0.1031167,0.6221713 A 1.5678712,1.6995243 0 0 1 2.037347,9.4298011 l -0.089451,0.036361 0.0087,0.1602563 c 0.028574,0.4982756 0.1528116,1.0611926 0.3404095,1.5311876 0.2981688,0.74472 0.7677848,1.380358 1.392697,1.882674 l 0.1304489,0.105042 0.1205099,-0.09966 a 1.5243883,1.6523901 0 0 1 2.4101842,0.972311 c 0.00621,0.03636 0.017393,0.07003 0.027332,0.07407 0.024847,0.0094 0.3776805,0.03097 0.5590666,0.03367 0.081996,0 0.2633825,-0.0054 0.4037705,-0.01347 z m 5.8788954,-0.89555 a 0.98395722,1.0665794 0 0 0 0.419921,-0.286845 0.77026954,0.83494855 0 0 0 0.187598,-0.277419 0.91065738,0.98712466 0 0 0 0.114298,-0.521169 0.96904878,1.0504191 0 0 0 -0.197537,-0.667959 1.0560147,1.1446875 0 0 0 -1.387727,-0.311086 c -0.05715,0.03636 -0.149084,0.117162 -0.21493,0.188537 a 0.77896613,0.84437539 0 0 0 -0.180144,0.269338 0.90071841,0.97635113 0 0 0 -0.114298,0.53733 c 0,0.17507 0.005,0.204697 0.04845,0.340713 0.12051,0.387847 0.422406,0.681426 0.78642,0.76492 0.03106,0.0067 0.139145,0.01077 0.24102,0.0081 a 0.84356938,0.91440333 0 0 0 0.298168,-0.04444 z M 1.8447687,8.9611525 A 1.0498028,1.1379541 0 0 0 2.2646898,8.6783474 1.0063199,1.0908199 0 0 0 2.5703129,7.816465 0.97277589,1.0544592 0 0 0 2.4609843,7.3639768 1.0709231,1.1608478 0 0 0 1.7602875,6.7646992 a 1.2697024,1.3763184 0 0 0 -0.5665207,0.028281 1.0522876,1.1406475 0 0 0 0.083239,2.19376 1.2100686,1.3116772 0 0 0 0.5677632,-0.02424 z M 14.806417,5.400501 A 1.033652,1.1204471 0 0 0 15.523264,4.3164146 1.0311673,1.1177537 0 0 0 14.920715,3.2861958 0.95289796,1.0329122 0 0 0 14.426251,3.1838472 0.95165559,1.0315655 0 0 0 13.737978,3.5178267 0.94047426,1.0194452 0 0 0 13.477081,3.9581947 c -0.041,0.126589 -0.04348,0.148136 -0.04348,0.3501397 0,0.18315 0.0037,0.2316309 0.0323,0.3299394 0.111814,0.3905404 0.386377,0.680079 0.745422,0.7837742 0.154054,0.045787 0.441042,0.035014 0.596338,-0.021547 z M 7.5845192,2.7784932 a 1.05353,1.1419941 0 0 0 0.1465996,-2.22742725 1.2672176,1.373625 0 0 0 -0.5528547,-0.00808 1.0622265,1.151421 0 0 0 -0.7292713,0.73125335 1.0361368,1.1231405 0 0 0 0.0733,0.9265236 1.167828,1.2658897 0 0 0 0.4224059,0.4524882 1.0063199,1.0908199 0 0 0 0.6398205,0.1252421 z"
     id="path2"
     style="stroke-width:1.29348" />
</svg>
