<?xml version="1.0" encoding="UTF-8" standalone="no"?>
<svg
   xmlns:dc="http://purl.org/dc/elements/1.1/"
   xmlns:cc="http://creativecommons.org/ns#"
   xmlns:rdf="http://www.w3.org/1999/02/22-rdf-syntax-ns#"
   xmlns:svg="http://www.w3.org/2000/svg"
   xmlns="http://www.w3.org/2000/svg"
   xmlns:sodipodi="http://sodipodi.sourceforge.net/DTD/sodipodi-0.dtd"
   xmlns:inkscape="http://www.inkscape.org/namespaces/inkscape"
   width="16"
   height="16"
   version="1.1"
   id="svg4"
   sodipodi:docname="type-code.svg"
   inkscape:version="1.0.1 (3bc2e813f5, 2020-09-07)">
  <metadata
     id="metadata10">
    <rdf:RDF>
      <cc:Work
         rdf:about="">
        <dc:format>image/svg+xml</dc:format>
        <dc:type
           rdf:resource="http://purl.org/dc/dcmitype/StillImage" />
      </cc:Work>
    </rdf:RDF>
  </metadata>
  <defs
     id="defs8" />
  <sodipodi:namedview
     pagecolor="#ffffff"
     bordercolor="#666666"
     borderopacity="1"
     objecttolerance="10"
     gridtolerance="10"
     guidetolerance="10"
     inkscape:pageopacity="0"
     inkscape:pageshadow="2"
     inkscape:window-width="1267"
     inkscape:window-height="799"
     id="namedview6"
     showgrid="false"
     inkscape:zoom="29.5625"
     inkscape:cx="8"
     inkscape:cy="7.4462934"
     inkscape:window-x="0"
     inkscape:window-y="27"
     inkscape:window-maximized="0"
     inkscape:current-layer="text11"
     inkscape:document-rotation="0" />
  <g
     aria-label="{}"
     id="text837"
     style="font-size:16px;line-height:1.25;font-family:sans-serif;text-align:center;letter-spacing:0px;word-spacing:0px;text-anchor:middle">
    <g
       aria-label="{}"
       id="text11"
       style="font-size:16px;line-height:1.25;font-family:sans-serif;text-align:center;letter-spacing:0px;word-spacing:0px;text-anchor:middle">
      <path
         d="M 6.9368222,14.783475 V 16 H 6.3931017 Q 4.2094497,16 3.4640263,15.374841 2.7273727,14.749683 2.7273727,12.882655 v -2.019094 q 0,-1.2756609 -0.4735631,-1.7656502 Q 1.7802465,8.6079216 0.53495088,8.6079216 H 0 V 7.3998448 h 0.53495088 q 1.25406532,0 1.71885872,-0.4815412 Q 2.7273727,6.4283144 2.7273727,5.169549 V 3.1420074 q 0,-1.8670278 0.7366536,-2.48373841 Q 4.2094497,0.03311031 6.3931017,0.03311031 H 6.9368222 V 1.2411872 H 6.3404835 q -1.2365258,0 -1.6136223,0.371716 -0.3770965,0.3717159 -0.3770965,1.5628966 v 2.0951263 q 0,1.3263501 -0.4034056,1.9261645 Q 3.5517232,7.796905 2.5870577,8.0081072 3.5604929,8.2362057 3.9551288,8.8360201 4.3497647,9.4358344 4.3497647,10.753737 v 2.095126 q 0,1.19118 0.3770965,1.562896 0.3770965,0.371716 1.6136223,0.371716 z"
         id="path13"
         style="stroke-width:1.10175" />
      <path
         d="m 9.0631792,14.750365 h 0.6138782 q 1.2277566,0 1.5960816,-0.363267 0.377096,-0.363269 0.377096,-1.571345 v -2.095126 q 0,-1.3179029 0.394637,-1.9177173 Q 12.439507,8.2030953 13.412943,7.9749969 12.439507,7.7637946 12.044872,7.1639803 11.650235,6.5641659 11.650235,5.2378158 V 3.1426895 q 0,-1.1996288 -0.377096,-1.5628967 Q 10.904814,1.2080769 9.6770574,1.2080769 H 9.0631792 V 0 H 9.615669 q 2.183652,0 2.911535,0.62515864 0.736654,0.61671056 0.736654,2.48373846 v 2.0275416 q 0,1.2587654 0.473563,1.7487546 0.473563,0.4815411 1.718858,0.4815411 H 16 v 1.2080769 h -0.543721 q -1.245295,0 -1.718858,0.4899892 -0.473563,0.4899892 -0.473563,1.7656505 v 2.019094 q 0,1.867028 -0.736654,2.492186 -0.727883,0.625159 -2.911535,0.625159 H 9.0631792 Z"
         id="path15"
         style="stroke-width:1.10175" />
    </g>
  </g>
</svg>
