<?xml version="1.0" encoding="UTF-8" standalone="no"?>
<svg
   xmlns:dc="http://purl.org/dc/elements/1.1/"
   xmlns:cc="http://creativecommons.org/ns#"
   xmlns:rdf="http://www.w3.org/1999/02/22-rdf-syntax-ns#"
   xmlns:svg="http://www.w3.org/2000/svg"
   xmlns="http://www.w3.org/2000/svg"
   xmlns:sodipodi="http://sodipodi.sourceforge.net/DTD/sodipodi-0.dtd"
   xmlns:inkscape="http://www.inkscape.org/namespaces/inkscape"
   width="16"
   height="16"
   version="1.1"
   id="svg4"
   sodipodi:docname="type-zip.svg"
   inkscape:version="1.0.1 (3bc2e813f5, 2020-09-07)">
  <metadata
     id="metadata10">
    <rdf:RDF>
      <cc:Work
         rdf:about="">
        <dc:format>image/svg+xml</dc:format>
        <dc:type
           rdf:resource="http://purl.org/dc/dcmitype/StillImage" />
      </cc:Work>
    </rdf:RDF>
  </metadata>
  <defs
     id="defs8" />
  <sodipodi:namedview
     pagecolor="#ffffff"
     bordercolor="#666666"
     borderopacity="1"
     objecttolerance="10"
     gridtolerance="10"
     guidetolerance="10"
     inkscape:pageopacity="0"
     inkscape:pageshadow="2"
     inkscape:window-width="1096"
     inkscape:window-height="814"
     id="namedview6"
     showgrid="false"
     inkscape:zoom="29.5625"
     inkscape:cx="8"
     inkscape:cy="8"
     inkscape:window-x="0"
     inkscape:window-y="27"
     inkscape:window-maximized="0"
     inkscape:current-layer="svg4" />
  <path
     d="M 0,0 V 16 H 16 V 0 Z M 1.3333333,1.3333333 H 6.6666667 V 2.6666667 H 8 V 1.3333333 h 6.666667 V 14.666667 H 1.3333333 Z M 8,2.6666667 V 4 H 9.3333333 V 2.6666667 Z M 8,4 H 6.6666667 V 5.3333333 H 8 Z M 8,5.3333333 V 6.6666667 H 9.3333333 V 5.3333333 Z M 8,6.6666667 H 6.6666667 V 8 H 8 Z M 8,8 V 9.3333333 H 9.3333333 V 8 Z M 8,9.3333333 H 6.6666667 V 12 H 9.3333333 V 10.666667 H 8 Z"
     id="path2"
     style="stroke-width:1.33333" />
</svg>
