<?xml version="1.0" encoding="UTF-8" standalone="no"?>
<svg
   xmlns:dc="http://purl.org/dc/elements/1.1/"
   xmlns:cc="http://creativecommons.org/ns#"
   xmlns:rdf="http://www.w3.org/1999/02/22-rdf-syntax-ns#"
   xmlns:svg="http://www.w3.org/2000/svg"
   xmlns="http://www.w3.org/2000/svg"
   xmlns:sodipodi="http://sodipodi.sourceforge.net/DTD/sodipodi-0.dtd"
   xmlns:inkscape="http://www.inkscape.org/namespaces/inkscape"
   height="37.795"
   width="37.795"
   version="1.1"
   id="svg8"
   sodipodi:docname="upload-primary.svg"
   inkscape:version="0.92.4 5da689c313, 2019-01-14">
  <metadata
     id="metadata14">
    <rdf:RDF>
      <cc:Work
         rdf:about="">
        <dc:format>image/svg+xml</dc:format>
        <dc:type
           rdf:resource="http://purl.org/dc/dcmitype/StillImage" />
      </cc:Work>
    </rdf:RDF>
  </metadata>
  <defs
     id="defs12" />
  <sodipodi:namedview
     pagecolor="#ffffff"
     bordercolor="#666666"
     borderopacity="1"
     objecttolerance="10"
     gridtolerance="10"
     guidetolerance="10"
     inkscape:pageopacity="0"
     inkscape:pageshadow="2"
     inkscape:window-width="2830"
     inkscape:window-height="1575"
     id="namedview10"
     showgrid="false"
     inkscape:zoom="22.627417"
     inkscape:cx="8.6764287"
     inkscape:cy="21.31851"
     inkscape:window-x="0"
     inkscape:window-y="51"
     inkscape:window-maximized="0"
     inkscape:current-layer="svg8" />
  <path
     style="fill:#0060c0;fill-opacity:1"
     d="M 18.383561,3.2676277 A 15.5,15.5 0 0 0 3.5518209,19.408244 15.5,15.5 0 0 0 19.692437,34.239984 15.5,15.5 0 0 0 34.524177,18.099368 15.5,15.5 0 0 0 18.383561,3.2676277 Z"
     id="circle2"
     inkscape:connector-curvature="0" />
  <path
     inkscape:connector-curvature="0"
     style="fill:#ffffff;stroke:#ffffff;stroke-width:2.90441203;stroke-linecap:round"
     d="M 18.683889,21.979109 V 10.557246"
     id="path2"
     sodipodi:nodetypes="cc" />
  <path
     inkscape:connector-curvature="0"
     style="fill:#ffffff;stroke:#ffffff;stroke-width:1.64385104;stroke-linecap:round;stroke-linejoin:round;stroke-miterlimit:4;stroke-dasharray:none"
     d="M 23.696502,14.456175 18.723097,9.4827725 13.749693,14.456175 Z"
     id="path4" />
  <path
     sodipodi:nodetypes="cc"
     id="path49"
     d="M 25.271122,25.967109 H 12.346656"
     style="fill:#ffffff;stroke:#ffffff;stroke-width:2.90441203;stroke-linecap:round"
     inkscape:connector-curvature="0" />
  <path
     inkscape:connector-curvature="0"
     style="fill:#ffffff;stroke:#ffffff;stroke-width:2.90441203;stroke-linecap:round"
     d="M 25.271122,25.967109 V 22.986332"
     id="path823"
     sodipodi:nodetypes="cc" />
  <path
     sodipodi:nodetypes="cc"
     id="path825"
     d="M 12.346656,25.967109 V 22.986332"
     style="fill:#ffffff;stroke:#ffffff;stroke-width:2.90441203;stroke-linecap:round"
     inkscape:connector-curvature="0" />
</svg>
