<?xml version="1.0" encoding="UTF-8" standalone="no"?>
<svg
   xmlns:dc="http://purl.org/dc/elements/1.1/"
   xmlns:cc="http://creativecommons.org/ns#"
   xmlns:rdf="http://www.w3.org/1999/02/22-rdf-syntax-ns#"
   xmlns:svg="http://www.w3.org/2000/svg"
   xmlns="http://www.w3.org/2000/svg"
   xmlns:sodipodi="http://sodipodi.sourceforge.net/DTD/sodipodi-0.dtd"
   xmlns:inkscape="http://www.inkscape.org/namespaces/inkscape"
   width="18.881"
   height="18.881"
   viewBox="0 0 4.996 4.996"
   version="1.1"
   id="svg4"
   sodipodi:docname="user.svg"
   inkscape:version="0.92.4 5da689c313, 2019-01-14">
  <metadata
     id="metadata10">
    <rdf:RDF>
      <cc:Work
         rdf:about="">
        <dc:format>image/svg+xml</dc:format>
        <dc:type
           rdf:resource="http://purl.org/dc/dcmitype/StillImage" />
        <dc:title></dc:title>
      </cc:Work>
    </rdf:RDF>
  </metadata>
  <defs
     id="defs8" />
  <sodipodi:namedview
     pagecolor="#ffffff"
     bordercolor="#666666"
     borderopacity="1"
     objecttolerance="10"
     gridtolerance="10"
     guidetolerance="10"
     inkscape:pageopacity="0"
     inkscape:pageshadow="2"
     inkscape:window-width="3840"
     inkscape:window-height="2059"
     id="namedview6"
     showgrid="false"
     inkscape:zoom="49.99735"
     inkscape:cx="13.268594"
     inkscape:cy="3.4000867"
     inkscape:window-x="0"
     inkscape:window-y="0"
     inkscape:window-maximized="1"
     inkscape:current-layer="svg4" />
  <path
     inkscape:connector-curvature="0"
     id="path830"
     d="M 2.3840213,4.4577158 C 2.2982907,4.4526041 2.2558264,4.4486398 2.1935679,4.4398357 1.8122634,4.385907 1.455039,4.220426 1.1670479,3.9643103 1.0238229,3.8369382 0.89956143,3.6902095 0.80061483,3.5316249 0.76493063,3.4744318 0.73791353,3.4259161 0.70740583,3.3642432 0.60243553,3.1520383 0.53795723,2.9315067 0.51314683,2.6998294 0.50063943,2.5830271 0.49918213,2.4348731 0.50934023,2.3150185 0.55293673,1.8016685 0.79662983,1.3281171 1.1915564,0.98932481 1.4648742,0.75485562 1.7962137,0.60013472 2.1498942,0.54182304 2.3093734,0.51553028 2.4803463,0.50895578 2.6455984,0.52276828 3.0655469,0.55787058 3.4674646,0.73086426 3.7822602,1.0120132 4.026999,1.2305926 4.2104054,1.4976571 4.3220508,1.7980207 4.3926148,1.9878619 4.4311311,2.1750498 4.441882,2.3803898 4.446452,2.4671754 4.4424226,2.612748 4.433102,2.6998267 4.3971001,3.0360017 4.2742551,3.3595073 4.079038,3.6322295 4.0126661,3.7249523 3.9499279,3.7985258 3.8646192,3.8836789 3.7890011,3.9591594 3.7355379,4.0057332 3.6545378,4.0666894 3.5167971,4.1703447 3.3725748,4.2515944 3.2092037,4.3175731 3.0074598,4.3990491 2.7970783,4.445402 2.5764107,4.4569942 c -0.032661,0.00174 -0.1671543,0.00223 -0.1924051,7.07e-4 z M 1.1845257,3.5917164 c 0.053874,-0.337212 0.2331385,-0.6343117 0.5075949,-0.8412505 0.048382,-0.036478 0.1410367,-0.096132 0.1493161,-0.096132 0.00163,0 0.00663,0.0031 0.011159,0.00694 0.00451,0.00381 0.019327,0.015221 0.032878,0.025341 0.1446633,0.1079834 0.3116067,0.1723204 0.4975999,0.1917662 0.031627,0.00332 0.150172,0.00332 0.1819794,1.9e-5 0.1973924,-0.020479 0.3790537,-0.094667 0.5285775,-0.2158609 0.00557,-0.00451 0.011278,-0.00821 0.012692,-0.00821 0.00141,0 0.011784,0.00538 0.023046,0.01192 0.1490785,0.086778 0.2828337,0.2056902 0.3879008,0.3448546 0.1250816,0.1656747 0.2053486,0.3504971 0.2418621,0.5569121 0.00651,0.036832 0.0071,0.03886 0.011088,0.03886 0.00833,0 0.083975,-0.096874 0.1317372,-0.1687096 0.1535773,-0.2309878 0.246796,-0.4873373 0.2760737,-0.7591955 0.00774,-0.071896 0.00872,-0.093666 0.00867,-0.1924052 C 4.1866475,2.3830821 4.1850703,2.353929 4.1752103,2.2742563 4.1363393,1.9601541 4.0091903,1.6598884 3.8102606,1.4124202 3.7355606,1.3194946 3.6387825,1.2227265 3.5467449,1.1489333 3.3020381,0.95273354 3.0100077,0.82745561 2.701529,0.78634595 2.62308,0.77588865 2.5610796,0.77199505 2.4731069,0.77199505 c -0.087973,0 -0.149973,0.003915 -0.2284222,0.0143509 C 1.9065683,0.83140525 1.5925249,0.9756694 1.3328424,1.2052243 1.2990614,1.2350898 1.2255469,1.3084353 1.196148,1.341612 0.97480183,1.5913973 0.83403753,1.8847394 0.78044383,2.2079094 c -0.022894,0.1380611 -0.028359,0.2951361 -0.01527,0.4388358 0.02558,0.280814 0.1214534,0.5512409 0.28057197,0.7914211 0.035157,0.053064 0.068287,0.097423 0.1115622,0.1493661 0.021453,0.025754 0.02371,0.026097 0.027212,0.00419 z M 2.4143512,2.6132477 C 2.2474791,2.5991524 2.0973647,2.5312101 1.976168,2.4149184 1.8791432,2.3218204 1.8108909,2.2051171 1.7786109,2.0771174 1.7634008,2.01681 1.7569731,1.9638738 1.7569731,1.8989294 c 0,-0.083992 0.010691,-0.150805 0.036549,-0.2284222 C 1.8301801,1.5604785 1.8889931,1.4676105 1.9748022,1.3842688 2.0862094,1.2760651 2.222824,1.209901 2.3783334,1.1888336 c 0.036935,-0.005 0.1126928,-0.00687 0.1514907,-0.00375 0.1702605,0.013742 0.3222271,0.082729 0.4439181,0.2015296 0.084756,0.082742 0.1430108,0.1751286 0.1790092,0.2838897 0.025923,0.078324 0.036467,0.1443654 0.036467,0.2284222 0,0.079288 -0.010789,0.1495455 -0.034053,0.2217872 -0.047185,0.1465147 -0.1443541,0.2766999 -0.2744942,0.3677592 -0.096646,0.067623 -0.2133328,0.1106019 -0.33412,0.1230647 -0.026217,0.00272 -0.1078965,0.00375 -0.1322021,0.00169 z"
     style="fill:#000000;stroke-width:0.00189562" />
</svg>
